{
  //"spider":"https://gitcode.net/qq_26898231/TVBox/-/raw/main/jar/888.png;md5;7B65FF61E7B6887F975D9D83909361D5",
  // "spider":"https://神器每日推送.tk/jar;md5;610afb6bb32e7c6d8aef182883702ad1",
  // "spider":"https://神器每日推送.tk/jar;md5;3550969fb9a34fa1136d98c3e33f03a1",
  // "spider":"https://hk.kstore.space/download/2698/jar/0831.jar;md5;1D8BE264384C9171C974CADB55E50541",
  //"spider":"https://hk.kstore.space/download/2698/jar/93.png;md5;a523814659f4bf773511c80e16b8f9a1",
  //"spider":"https://hk.kstore.space/download/2698/jar/9.6custom_spider%20.jar;md5;b10d1d0527e69bcdc323a4c0bf9e5d65",
  //"spider":"https://hk.kstore.space/download/2698/jar/jar0828.jar",
  //"spider":"https://hk.kstore.space/download/2698/jar/0906.jar;md5;86cfdb829f2d843c9f302906efdbd451",
  //spider":"https://hk.kstore.space/download/2698/jar/jar_888.png;md5;7b65ff61e7b6887f975d9d83909361d5",
  //"spider":"https://hk.kstore.space/download/2698/jar/0907.jar",
  //"spider":"https://gitcode.net/qq_26898231/TVBox/-/raw/main/jar/888.png;md5;7BF81EB29F54645E289066EF7071A76C",
  //"spider": "https://gitea.com/Yoursmile/TVBox/raw/branch/main/XC0913.jar;md5;89FE42BE4E61CCDA8FA5392546FCF821",
  //"spider":"https://hk.kstore.space/download/2698/jar/1663320751.zip;md5;3f3064bf30cd0959cf652483ea84badd",
  //"spider":"https://notabug.org/wzs888/test/raw/master/jar/999.jar;md5;12730AC72524422555A034DC8DEE8B57",
  //"spider":"https://hk.kstore.space/download/2698/jar/0917.jar;md5;89a367a21768e46bc528b6ecf735e1b3",
     "spider":"https://notabug.org/mmzzxxx/tv/src/e9575b0972ea211e0cea56172a96cdcbdd4a46a1/jar/0924.jar",

  "lives":[{"group":"redirect","channels":[{"name":"live","urls":["proxy://do=live&type=txt&ext=aHR0cHM6Ly9naXRjb2RlLm5ldC9naXRodWJfNzM2NDgxNTYvdHZib2QvLS9yYXcvbWFzdGVyL2xpdmVfXzFfLnR4dA=="]}]}],


  "sites":[                     
 
   {"key":"mtv_xp_乐猪影视","name":"🐝乐猪影视","type":3,"api":"csp_XBiubiu"       ,"searchable":1,"quickSearch":1,"filterable":0,"ext":"https://gitcode.net/MiaoTV/box/-/raw/master/Json/乐猪影视.json","jar":"https://CN.kstore.space/download/2698/jar/%E8%B5%84%E6%BA%90%E5%8C%85AI.jar;md5;b10d1d0527e69bcdc323a4c0bf9e5d65"},
   {"key":"mtv_xp_乐猪影院","name":"🐝乐猪影院","type":3,"api":"csp_XPathMac"      ,"searchable":1,"quickSearch":1,"filterable":0,"ext":"https://gitcode.net/MiaoTV/box/-/raw/master/Json/乐猪影院.json","jar":"https://CN.kstore.space/download/2698/jar/%E8%B5%84%E6%BA%90%E5%8C%85AI.jar;md5;b10d1d0527e69bcdc323a4c0bf9e5d65"},
   {"key":"mtv_xp_在线之家","name":"🐝在线之家","type":3,"api":"csp_XPathFilter"   ,"searchable":1,"quickSearch":1,"filterable":1,"ext":"https://gitea.com/takoph/0/raw/branch/main/zaixianzhijiaXP.json","jar":"https://CN.kstore.space/download/2698/jar/%E8%B5%84%E6%BA%90%E5%8C%85AI.jar;md5;b10d1d0527e69bcdc323a4c0bf9e5d65"},
   {"key":"mtv_xp_在线直链","name":"🐝在线直链","type":3,"api":"csp_XBiubiu"       ,"searchable":1,"quickSearch":1,"filterable":0,"ext":"https://gitcode.net/MiaoTV/box/-/raw/master/Json/在线直链.json","jar":"https://CN.kstore.space/download/2698/jar/%E8%B5%84%E6%BA%90%E5%8C%85AI.jar;md5;b10d1d0527e69bcdc323a4c0bf9e5d65"},
   {"key":"mtv_xp_焦炭影视","name":"🐝焦炭影视","type":3,"api":"csp_XPathFilter"   ,"searchable":1,"quickSearch":1,"filterable":1,"ext":"https://gitcode.net/MiaoTV/box/-/raw/master/Json/焦炭影视.json","jar":"https://CN.kstore.space/download/2698/jar/%E8%B5%84%E6%BA%90%E5%8C%85AI.jar;md5;b10d1d0527e69bcdc323a4c0bf9e5d65"},
   {"key":"mtv_xp_利奥影视","name":"🐝利奥影视","type":3,"api":"csp_XPathFilter"   ,"searchable":1,"quickSearch":1,"filterable":1,"ext":"https://gitcode.net/MiaoTV/box/-/raw/master/Json/利奥影视.json","jar":"https://CN.kstore.space/download/2698/jar/%E8%B5%84%E6%BA%90%E5%8C%85AI.jar;md5;b10d1d0527e69bcdc323a4c0bf9e5d65"},
   {"key":"mtv_xp_利奥影院","name":"🐝利奥影院","type":3,"api":"csp_XPathMacFilter","searchable":1,"quickSearch":1,"filterable":1,"ext":"https://gitcode.net/MiaoTV/box/-/raw/master/Json/利奥影院.json","jar":"https://CN.kstore.space/download/2698/jar/%E8%B5%84%E6%BA%90%E5%8C%85AI.jar;md5;b10d1d0527e69bcdc323a4c0bf9e5d65"},
   {"key":"mtv_xp_利奥直链","name":"🐝利奥直链","type":3,"api":"csp_XBiubiu"       ,"searchable":1,"quickSearch":1,"filterable":0,"ext":"https://gitcode.net/MiaoTV/box/-/raw/master/Json/利奥直链.json","jar":"https://CN.kstore.space/download/2698/jar/%E8%B5%84%E6%BA%90%E5%8C%85AI.jar;md5;b10d1d0527e69bcdc323a4c0bf9e5d65"},
   {"key":"mtv_xp_厂长资源","name":"🐝厂长资源","type":3,"api":"csp_XBiubiu"       ,"searchable":1,"quickSearch":1,"filterable":0,"ext":"https://CN.kstore.space/download/2698/XB/_%E5%8E%82%E9%95%BF%E8%B5%84%E6%BA%90-%E8%93%9D%E5%85%89.json","jar":"https://CN.kstore.space/download/2698/jar/%E8%B5%84%E6%BA%90%E5%8C%85AI.jar;md5;b10d1d0527e69bcdc323a4c0bf9e5d65"},
   {"key":"mtv_xp_厂长直链","name":"🐝厂长直链","type":3,"api":"csp_XPath"         ,"searchable":1,"quickSearch":1,"filterable":0,"ext":"https://CN.kstore.space/download/2698/XB/%E5%8E%82%E9%95%BF%E7%9B%B4%E9%93%BE.json","jar":"https://CN.kstore.space/download/2698/jar/%E8%B5%84%E6%BA%90%E5%8C%85AI.jar;md5;b10d1d0527e69bcdc323a4c0bf9e5d65"},
    {"key":"csp_CZSPP","name":"🥇厂长(SP)","type":3,"api":"csp_Czsapp","searchable":1,"quickSearch":1,"filterable":1},  
    {"key":"csp_xpath_czspp","name":"🐜厂长资源(XPF)️","type":3,"api":"csp_XPathMacFilter","searchable":1,"quickSearch":1," filterable":1,"ext":"https://CN.kstore.space/download/2698/XB/czspp.json"},
    {"key": "csp_厂长资源","name": "🥈厂长资源(XB)","type": 3,"api": "csp_XBiubiu","searchable": 1,"quickSearch": 1,"filterable": 0,"ext": "https://CN.kstore.space/download/2698/XB/_%E5%8E%82%E9%95%BF%E8%B5%84%E6%BA%90-%E8%93%9D%E5%85%89.json"},
    {"key":"csp_xpath_农民影视","name":"🍿农民影视(XPF)️","type":3,"api":"csp_XPathMacFilter","searchable":1,"quickSearch":1,"filterable":1,"ext":"https://CN.kstore.space/download/2698/XB/nongminyingshi.json"},

    {"key":"mtv_xp_在线之家","name":"🍒在线之家","type":3,"api":"csp_XPathFilter" ,"searchable":1,"quickSearch":1 ,"filterable":1,"ext":"https://gitea.com/takoph/0/raw/branch/main/zaixianzhijiaXP.json"},
    {"key":"csp_xpath_在线之家","name":"🦅在线之家(XPF)","type":3,"api":"csp_XPathFilter","searchable":1,"quickSearch":1,"filterable":1,"ext":"https://CN.kstore.space/download/2698/XB/Zxzj.json"},
 //{"key":"293视频","name":"🥇293视频","type":3,"api":"csp_SP293","searchable":1,"quickSearch":1,"filterable":1},
    {"key":"csp_77","name":"🎬 七七(SP)","type":3,"api":"csp_Kunyu77","searchable":1,"quickSearch":1,"filterable":1}, 
    {"key":"csp_Kunyu77","name":"👒酷云七七(新版)","type":3,"api":"csp_Kunyu77","searchable":1,"quickSearch":1,"filterable":1,"jar":"https://CN.kstore.space/download/2698/jar/custom_spider.jar"}, 
    {"key":"焦炭影视","name":"💣焦炭影视","type":3,"api":"csp_XPathFilter","searchable":1,"quickSearch":1,"filterable":1,"ext":"https://CN.kstore.space/download/2698/XB/%E7%84%A6%E7%82%AD%E5%BD%B1%E8%A7%86.json"},
     {"key": "3EDY","name": "☘️3EDY(EXO)","type": 3,"api": "csp_EEEDY","searchable": 1,"quickSearch": 1,"filterable": 1},  
    {"key": "csp_biubiu_特狗影视","name": "🐶特狗影视","type": 3,"api": "csp_XBiubiu","searchable": 1,"quickSearch": 1,"filterable": 0,"ext": "https://agit.ai/nb/kls/raw/branch/mao/xb/tgys.json"}, 
    {"key": "csp_biubiu_骚火电影","name": "🔥骚火电影","type": 3,"api": "csp_XBiubiu","searchable": 1,"quickSearch": 1,"filterable": 0,"ext": "https://CN.kstore.space/download/2698/XB/shdy.json;md5;0da5ae44c497fc680b66a990d33f226c"},
    {"key":"csp_AppTT","name":"🐰兔兔影视","type":3,"api":"csp_AppTT","searchable":1,"quickSearch":1,"filterable":1},
    {"key":"tangkzy","name":"💯‍坦克资源","type":1,"api":"https://tangkzy.com/api.php/provide/vod/","playUrl":"","searchable":1,"quickSearch":1},
    {"key":"555ziyuan","name":"💯‍555资源","type":1,"api":"https://www.555ziyuan.com:555/api.php/provide/vod/","playUrl":"","searchable":1,"quickSearch":1},

    {"key":"csp_xbb_饭团HD","name":"🐟饭团HD","type":3,"api":"csp_XBiubiu","searchable":1,"quickSearch":1,"filterable":0,"ext":"https://CN.kstore.space/download/2698/XB/%E9%A5%AD%E5%9B%A2HD.json"},
    {"key":"csp_xbb_voflix","name":"🗽Voflix HD","type":3,"api":"csp_XBiubiu","searchable":1,"quickSearch":1,"filterable":0,"ext":"https://CN.kstore.space/download/2698/XB/voflix.json"},

    {"key": "多多","name": "✨多多影视(优)","type": 1,"api": "https://www.ddzyz1.com/api.php/provide/vod/","playUrl": "","searchable": 1,"quickSearch": 1,"filterable": 1,"categories": ["国产剧","港台剧","日韩剧","欧美剧","综艺","动漫","动作片","喜剧片","爱情片","科幻片","恐怖片","剧情片","战争片"]},
 //{"key": "T4","name": "🕵️T4(搜索)","type": 4,"api": "https://service-59u7dsoa-1308372858.gz.apigw.tencentcs.com/release/vod?ali_token=7b78e7a5aa8a4a8bb722ec7e171d9438","searchable": 1,"quickSearch": 1,"filterable": 0},
    {"key": "t4public","name": "🏡 T4公共(聚合)","type": 4,"api": "https://t4.secan.icu/vod?sites=all&ali_token=xxxxxxxxx&timeout=10","searchable": 1,"quickSearch": 1,"filterable": 0},
    {"key": "T4","name": "🐞T4桉佬(搜索)","type": 4,"api": "https://t4.secan.icu/vod?sites=all&timeout=7","searchable": 1,"quickSearch": 1,"filterable": 1},
 
    {"key": "Gitcafe","name":"🔖小纸条🔖","type": 3,"api": "csp_Gitcafe","searchable": 1,"quickSearch": 1,"filterable": 1,"ext": "93335e4d5fd042469ff99e3b77b45cb0"},
    {"key":"csp_Yiso","name":"🆎易搜(搜索)","type":3,"api":"csp_Yiso","searchable":1,"quickSearch":1,"filterable":0,"ext":"93335e4d5fd042469ff99e3b77b45cb0"},
    {"key":"FindZY","name":"🦊找资源(搜索)","type":3,"api":"csp_Zhaozy","searchable":1,"quickSearch":1,"filterable":1,"ext": "93335e4d5fd042469ff99e3b77b45cb0"},
    {"key": "zhaozy","name": "🍭找资源(搜索)","type": 3,"api": "csp_Zhaozy","searchable": 1,"quickSearch": 1,"filterable": 1,"ext": "93335e4d5fd042469ff99e3b77b45cb0"},
    {"key":"AliPS","name":"😻盘搜(搜索)","type":3,"api":"csp_AliPS","searchable":1,"quickSearch":1,"filterable":1,"ext": "93335e4d5fd042469ff99e3b77b45cb0"},
    {"key":"Yisou","name":"☀️易搜(搜索)","type":3,"api":"csp_Yisou","searchable":1,"quickSearch":1, "filterable":0,"ext": "93335e4d5fd042469ff99e3b77b45cb0","jar":"https://CN.kstore.space/download/2698/jar/ts0903.jar"},
    {"key": "csp_xpath_clss","name": "🍳 磁力搜索","type": 3,"api": "csp_XPathFilter","searchable": 1,"quickSearch": 1,"filterable": 1,"ext": "https://CN.kstore.space/download/2698/%E7%A3%81%E5%8A%9B/%E7%A3%81%E5%8A%9B%E6%90%9C%E7%B4%A2.json"},
    {"key": "push_agent","name":"🎯推送","type":3,"api":"csp_PushAgent","searchable":0,"quickSearch":0,"filterable":0,"ext": "93335e4d5fd042469ff99e3b77b45cb0"},
    
 // {"key":"csp_xpath_ctv","name":"💰冲TMTV","type":3,"api":"csp_XPathMacFilter","searchable":1,"quickSearch":1,"filterable": 1,"ext": "https://hk.kstore.space/download/2698/XB/chongtmtv.json"},
    {"key":"csp_xpath_libvio","name":"🔷LIBVIO(XPF)","type":3,"api":"csp_XPathMacFilter","searchable":1,"quickSearch":1,"filterable" :1,"ext":"https://CN.kstore.space/download/2698/XB/libvio.json"},
    {"key": "Lib","name": "🎉Libvio(SP)","type": 3,"api": "csp_Lib","searchable": 0,"quickSearch": 1,"filterable": 1},
    {"key":"csp_biubiu_LIBVIO","name":"🚀LIBVIO(XB)","type":3,"api":"csp_XBiubiu","searchable":1,"quickSearch":1,"filterable":0,"ext":"https://shadowchiu369.github.io/TVBox/MaooXB2/LIBVIO.json"},
 //{"key":"看看影视","name":"👓看看影视","type":3,"api":"csp_XBiubiu","searchable":1,"quickSearch" :1,"filterable":0,"ext":"https://CN.kstore.space/download/2698/XB/%E7%9C%8B%E4%B8%80%E7%9C%8B%E5%BD%B1%E8%A7%86.json"},
 //{"key":"csp_xp_kyikan","name": "👓看一看","type": 3,"api":"csp_XPath","searchable": 1,"quickSearch": 1,"filterable":0,"ext":"https://raw.iqiq.io/liu673cn/box/main/sub/MeowXP/kyikan.json"},
   {"key":"csp_Jianying","name":"🎞️简影","api":"csp_JianYing","type":3,"searchable":1,"quickSearch":1,"filterable":0,"ext":"eyJhbGciOiJIUzI1NiIsInR5cCI6IkpXVCJ9.eyJ1c2VyIjp7IklEIjozMzk2MSwiQ3JlYXRlZEF0IjoiMjAyMi0wOS0xNVQwOTo1NjozOC41MzErMDg6MDAiLCJVcGRhdGVkQXQiOiIyMDIyLTA5LTE1VDA5OjU2OjM4LjUzMSswODowMCIsIkRlbGV0ZWRBdCI6bnVsbCwidXNlcl9lbWFpbCI6Ijg2NzMzNzkzNUBxcS5jb20iLCJ1c2VyX25hbWUiOiIiLCJ1c2VyX3B3ZCI6IiIsInVzZXJfaWQiOiI2NWFlZDQ0My02ZmFhLTQyMTYtYTU2Mi04Y2YyZjlmZjk1ZGIiLCJ1c2VyX2Fuc3dlciI6IiIsImxvY2tfaXMiOiJGYWxzZSIsImlzX3R2IjoiIiwiaXNfYWRtaW4iOiJGYWxzZSIsInJlZ190aW1lIjpudWxsLCJyZWdfa2V5IjoiIiwidHZfdGltZSI6bnVsbCwidHZfa2V5IjoiIn0sImV4cCI6MTY2MzgxMTgwNCwiaXNzIjoiQWxmcmVkbyBNZW5kb3phIn0.t0xl2Grj9CzjcbzL7538Q0Kb7rDTvB90qz7A0I24KLs","jar":"http://刚刚.live/jar2/jar0901.jar"},
    {"key":"比特影视","name":"💰比特影视","type":3,"api":"csp_XPath","searchable":0,"quickSearch":0,"filterable":0,"ext":"https://hk.kstore.space/download/2698/XB/%E6%AF%94%E7%89%B9%E5%BD%B1%E8%A7%86.json"},


    {"key": "csp_xpath_nbys","name": "🍭泥巴(需梯子)","type": 3,"api": "csp_Nbys","searchable": 1,"quickSearch": 1,"filterable": 1,"jar":"https://CN.kstore.space/download/2698/jar/mmzzxxx.jar;md5;b10d1d0527e69bcdc323a4c0bf9e5d65"},
    {"key":"if101资源","name":"1️⃣ if101(需梯子)","type":1,"api":"https://demo.if101.tv/api.php/provide/vod","searchable":1,"quickSearch":0,"filterable":0},
    {"key":"if101","name":"💯‍if101(需梯子)","type":1,"api":"https://demo.if101.tv/api.php/provide/vod/","playUrl":"","searchable":1,"quickSearch":1},
    {"key":"TG","name":"📗TG","type":1,"api":"http://360.tgzy.cc/api.php/provide/vod/?ac=list","searchable":1,"quickSearch":1,"filterable":0},

 //{"key":"酷猫","name":"🐱酷猫","type":3,"api":"csp_Kmys","searchable":1,"quickSearch":1,"filterable":1},
    {"key":"追剧喵","name":"🥇追剧喵(SP)","type":3,"api":"csp_ZJMiao","searchable":1,"quickSearch":1,"filterable":1},    
    {"key":"csp_Kuaikan","name":"🥇快看(SP)","type":3,"api":"csp_Kuaikan","searchable":1,"quickSearch":1,"filterable":1},
 //{"key":"在线之家","name":"🥇在线之家","type":3,"api":"csp_Zxzj","searchable":1,"quickSearch":1,"filterable":1},
 //{"key":"csp_Wmkk","name":"🥇完美看看","api":"csp_Wmkk","type":3,"filterable":1,"quickSearch":1,"searchable":1},
 //{"key":"Ikan","name":"🥇爱看","type":3,"api":"csp_IKan","searchable":1,"quickSearch":1,"filterable":1},
   //  {"key":"Ekan_spider","name":"🙈Ekan","api":"csp_Ekan","type":3,"filterable":1,"quickSearch":1,"searchable":1}, 
   //  {"key": "Nfyun", "name": "🥇Nf云(SP)", "type": 3, "api": "csp_Nfyun", "searchable": 1, "quickSearch": 1, "filterable": 1},
    {"key":"csp_LiteApple","name":"🥇小苹果(SP)","type":3,"api":"csp_LiteApple","searchable":1,"quickSearch":1,"filterable": 1},
    {"key":"csp_biubiu_dadagui","name":"🐢达达龟","type":3,"api":"csp_XPathFilter","searchable":1,"quickSearch":1,"filterable":0,"ext":"https://gitcode.net/qq_26898231/TVBox/-/raw/main/json/%E8%BE%BE%E8%BE%BE%E9%BE%9F.json"},
    {"key":"360_spider","name":"🥇360影视","api":"csp_SP360","type":3,"filterable":1,"quickSearch":1,"searchable":1}, 
    {"key":"csp_Auete","name":"🥇Auete(SP)","type":3,"api":"csp_Auete","searchable":1,"quickSearch":1,"filterable":1},
    {"key":"csp_Bttoo","name": "🥇Bttwo(SP)","type":3,"api":"csp_Bttoo","searchable":1,"quickSearch":1,"filterable":1},
    {"key":"csp_Cokemv","name":"📕Cokemv(SP)","type":3,"api":"csp_Cokemv","searchable":1,"quickSearch":1,"filterable":1},
    
    {"key": "csp_DiDuan","name": "🥇低端影视","type": 3,"api": "csp_Ddrk","searchable": 1,"quickSearch": 1,"filterable": 0}, 
    {"key": "神马影院","name": "🥇神马影院","type": 3,"api": "csp_Smdyy","searchable": 1,"quickSearch": 1,"filterable": 1},
    {"key": "KanSJ_spider","name": "🛰️看视界","api": "csp_KanSJ","type": 3,"filterable": 1,"quickSearch": 1,"searchable": 1},
    {"key": "Lezhu_spider","name": "🐷乐猪影视","api": "csp_Lezhu","type": 3,"filterable": 1,"quickSearch": 1,"searchable": 1}, 
    {"key":"csp_biubiu_乐猪影视","name":"爱乐猪🐷(XB)","type":3,"api":"csp_XBiubiu","searchable":1,"quickSearch":1,"filterable":0,"ext":"http://52bsj.vip:81/api/v3/file/get/29905/nq5pbGdZ_%E4%B9%90%E7%8C%AA%E5%BD%B1%E8%A7%86.json?sign=_whz4msOogHzkHFoRgpzdVgJQMZ0yXaP5kKx91m0ynI%3D%3A0"},
    {"key":"csp_biubiu_瓜皮TV","name":"🎯瓜皮TV","type":3,"api":"csp_XBiubiu","searchable":1,"quickSearch":1,"filterable":0,"ext":"http://52bsj.vip:81/api/v3/file/get/3982/%E7%93%9C%E7%9A%AETV.json?sign=fJ7wD2_TvXE0Mav6YOScPeYUf6sPBCy6BbQ5C2PQ-UA%3D%3A0"},
    {"key":"csp_biubiu_小强影院","name":"🎯宝盒影迷","type":3,"api":"csp_XBiubiu","searchable":1,"quickSearch":1,"filterable":0,"ext":"http://52bsj.vip:81/api/v3/file/get/3941/%E5%B0%8F%E5%BC%BA%E5%BD%B1%E8%BF%B7.json?sign=k_2eHVclgKbKUwDftUYaqOR8vQmSpX5dRrUIp551O-w%3D%3A0"},
    {"key":"csp_biubiu_北川影视","name":"🏔️北川影视(XB)","type":3,"api":"csp_XBiubiu","searchable":1,"quickSearch":1,"filterable":0,"ext":"https://shadowchiu369.github.io/TVBox/MaooXB2/北川影视.json"},
    {"key":"csp_biubiu_韩剧在线","name":"🐳韩剧在线〔B〕","type":3,"api":"csp_XBiubiu","searchable":1,"quickSearch":1, "filterable":0,"ext":"https://mmzzxxx.github.io/mmzzxxxmao/韩剧在线.json"},
    {"key":"csp_xp_mozhatu","name":"🐇莫扎兔(XP)","type":3,"api":"csp_XPath","searchable":1,"quickSearch":1,"filterable":1,"ext":"https://shadowchiu369.github.io/TVBox/MaooXP/mozhatu.json"},
    {"key":"打驴动漫","name":"🐎打驴动漫","type":3,"api":"csp_XBiubiu","searchable":1,"quickSearch":1,"filterable":0,"ext":"https://hk.kstore.space/download/2698/%E6%89%93%E9%A9%B4%E5%8A%A8%E6%BC%AB.json"},
    {"key":"csp_biubiu_骚火电影","name":"🔥骚火(XB)","type":3,"api":"csp_XBiubiu","searchable":1,"quickSearch":1,"filterable":0,"ext":"https://share.nite07.com/api/v3/file/source/2811/%E9%AA%9A%E7%81%AB%E7%94%B5%E5%BD%B1.json?sign=e9v4QKma5fzqYXyi8noR30G3cwv63VOSuyetYW7l3tw%3D%3A0"},
    {"key":"csp_xp_vip1280","name":"👑VIP电影(XP)","type":3,"api":"csp_XPath","searchable":1,"quickSearch":1,"filterable":0,"ext":"https://shadowchiu369.github.io/TVBox/MaooXP/vip1280.json"},
    {"key": "csp_Bttoo","name": "🥂两个BT","type": 3,"api": "csp_Bttoo","searchable": 1,"quickSearch": 1,"filterable": 1},
    {"key": "csp_Mjxq","name": "🌏美剧星球","type": 3,"api": "csp_Mjxq","searchable": 1,"quickSearch": 1,"filterable": 1},
    {"key": "csp_剧荒","name": "🎭剧荒","type": 3,"api": "csp_Juhuang","searchable": 1,"quickSearch": 1,"filterable": 1},
  //{"key": "csp_Tkys","name": "📡天空影视","type": 3,"api": "csp_Tkys","searchable": 1,"quickSearch": 1,"filterable": 1},
    {"key": "csp_AppYsV2","name": "🍹优众影视","type": 3,"api": "csp_AppYsV2","searchable": 1,"quickSearch": 1,"filterable": 1,"ext": "http://121.205.88.178:8090/xgapp.php/v2/"},
    //{"key":"csp_QQ","name":"🐧腾讯（官）","type":3,"api":"csp_QQ","searchable":1,"quickSearch":1,"filterable":1},
   // {"key":"csp_MGTV","name":"🥭芒果（官）","type":3,"api":"csp_MGTV","searchable":1,"quickSearch":1,"filterable":1},
    //{"key":"csp_IQIYI","name":"🥝爱奇艺（官）","type":3,"api":"csp_IQIYI","searchable":1,"quickSearch":1,"filterable":1},
    {"key":"天堂资源","name":"🥇天堂资源(官)","type":1,"api":"http://vipmv.cc/api.php/provide/vod/","searchable":1,"quickSearch":1},
    //{"key":"csp_Nbys","name":"🚧泥巴(跨栏)","type":3,"api":"csp_Nbys","searchable":1,"quickSearch":1,"filterable":1},
    //{"key":"If101","name":"🚧If101(跨栏)","type":3,"api":"csp_If101","searchable":1,"quickSearch":1,"filterable":1},
    {"key": "csp_dd5555","name": "🥇555影视(SP)","api": "csp_Dy555","type": 3,"filterable": 1,"quickSearch": 1,"searchable": 1},
    {"key":"555影视","name":"🌞555影视","type":3,"api":"csp_XBiubiu" ,"searchable":1,"quickSearch":1,"filterable": 0,"ext":"https://CN.kstore.space/download/2698/XB/%E4%B8%89%E4%BA%94%E7%94%B5%E5%BD%B1.json"},
    {"key": "csp_555电影","name": "🥈555电影(福利)","type": 3,"api": "csp_XBiubiu","searchable": 1,"quickSearch": 1,"filterable": 0,"ext": "https://CN.kstore.space/download/2698/XB/_555%E7%94%B5%E5%BD%B1.json"},
    {"key":"csp_zdbk","name":"🍀真不卡(福利)","type":3,"api":"csp_XBiubiu","searchable":1,"quickSearch":1,"filterable":0,"ext":"https://CN.kstore.space/download/2698/XB/%E7%9C%9F%E7%9A%84%E4%B8%8D%E5%8D%A1.json"},
    {"key":"csp_xpath_zbkyy","name":"🚁真不卡影院(福利XPF)️","type":3,"api":"csp_XPathMacFilter","searchable":1,"quickSearch":1, "filterable":1,"ext":"https://CN.kstore.space/download/2698/XB/zbkyy.json"},

    {"key":"csp_xpath_kangbazi","name":"🌎扛把子(福利)","type":3,"api":"csp_XPath","searchable":1,"quickSearch":0,"filterable":0,"ext":"https://mmzzxxx.github.io/mmzzxxxmao/kangbazi.json"},
    {"key":"csp_biubiu_黑狐影视ns","name":"🌏黑狐影视(福利)","type":3,"api":"csp_XBiubiu","searchable":1, "quickSearch":1,"filterable":0,"ext":"https://mmzzxxx.github.io/mmzzxxxmao/黑狐影视(ns).json"},
   {"key":"茶杯狐","name":"🦊茶杯狐(福利)","type":3,"api":"csp_XBiubiu","searchable":1,"quickSearch":1,"filterable":0,"ext":"https://CN.kstore.space/download/2698/%E8%8C%B6%E6%9D%AF%E7%8B%90.json"},
   {"key": "csp_biubiu_大米星球","name": "💝大米星球(福利)","type": 3,"api": "csp_XBiubiu","searchable": 1,"quickSearch": 1,"filterable": 0,"ext": "https://CN.kstore.space/download/2698/XB/%E5%A4%A7%E7%B1%B3%E6%98%9F%E7%90%83.json"},

    {"key": "csp_Yj1211","name": "📽️直播合集","type": 3,"api": "csp_Yj1211","searchable": 1,"quickSearch": 1,"filterable": 1},
  
  {"key": "csp_XYQBiu_影视工厂","name":"影视工厂(XYQ)","type":3,"api":"csp_XYQBiu","searchable":1,"quickSearch":1,"filterable":1,"ext":"https://CN.kstore.space/download/2698/XB/%E5%BD%B1%E8%A7%86%E5%B7%A5%E5%8E%82.json","jar":"https://CN.kstore.space/download/2698/jar/XYQBiu_0828.jar"},
  {"key": "csp_XYQBiu_555影视","name":"555影视(XYQ)","type":3,"api":"csp_XYQBiu","searchable":1,"quickSearch":1,"filterable":1,"ext":"https://CN.kstore.space/download/2698/XB/555dy.json","jar":"https://CN.kstore.space/download/2698/jar/XYQBiu_0828.jar"},
  {"key": "csp_XYQBiu_剧荒","name": "剧荒(XYQ)","type": 3,"api": "csp_XYQBiu","searchable": 1,"quickSearch": 1,"filterable":1,"ext": "https://CN.kstore.space/download/2698/XB/%E5%89%A7%E8%8D%92.json","jar":"https://CN.kstore.space/download/2698/jar/XYQBiu_0828.jar"},
## 搜搜
    {
      "key": "bdys",
      "name": "🅱磁力高清",
      "type": 3,
      "api": "csp_XPbd",
      "searchable": 1,
      "quickSearch": 1,
      "filterable": 1,
      "ext": "https://CN.kstore.space/download/2698/%E7%A3%81%E5%8A%9B/Bdys.json",
      "jar": "https://CN.kstore.space/download/2698/%E7%A3%81%E5%8A%9B/0723.jar;md5;226DB2FC833312B73B0BF57C7DD41484"
    },



##  速度还行
    {"key": "csp_biubiu_迷你库","name": "🥈迷你库","type": 3,"api": "csp_XBiubiu","searchable": 1,"quickSearch": 1,"filterable": 0,"ext": "https://CN.kstore.space/download/2698/miniku.json"},
    {"key": "lziapi","name": "量子(sp)","type": 1,"api": "https://cj.lziapi.com/api.php/provide/vod/","searchable": 1,"quickSearch": 1,"filterable": 0,"categories": ["国产剧","香港剧","韩国剧","欧美剧","泰剧","大陆综艺","国产动漫","动作片","喜剧片","爱情片","科幻片","恐怖片","剧情片","战争片","纪录片"]},
    {"key": "csp_影视工厂","name": "🥈影视工厂(XB)","type": 3,"api": "csp_XBiubiu","searchable": 1,"quickSearch": 1,"filterable": 0,"ext": "https://notabug.org/xx03253/xxu/raw/main/MaooXB2/影视工厂.json"},
    {"key":"csp_xp_nmys","name":"👨‍🌾农民影视(XP)","type": 3,"api":"csp_XPathFilter","searchable":1,"quickSearch":1,"filterable":1,"ext":"https://shadowchiu369.github.io/TVBox/MaooXP/nmys.json"},
    {"key":"csp_biubiu_小强迷","name":"🥈小强迷(XB)","type":3,"api":"csp_XBiubiu","searchable":1,"quickSearch":1,"filterable":0,"ext":"https://notabug.org/xx03253/xxu/raw/main/MaooXB2/小强迷.json"},
    {"key":"csp_biubiu_花猫TV","name":"🥈花猫TV(XB)","type":3,"api":"csp_XBiubiu","searchable":1,"quickSearch":1,"filterable":0,"ext":"https://notabug.org/xx03253/xxu/raw/main/MaooXB2/花猫TV.json"},
    {"key":"csp_biubiu_饭团HD","name":"🥈饭团HD(XB)","type":3,"api":"csp_XBiubiu","searchable":1,"quickSearch":1,"filterable":0,"ext":"https://notabug.org/xx03253/xxu/raw/main/MaooXB2/饭团HD.json"},
    {"key":"csp_biubiu_F7好看剧","name":"🥈F7好看剧(XB)","type":3,"api":"csp_XBiubiu","searchable":1,"quickSearch":1,"filterable":0,"ext":"https://notabug.org/xx03253/xxu/raw/main/MaooXB2/F7好看剧.json"},
    {"key":"csp_biubiu_达达龟","name":"🥈达达龟(XB)","type":3,"api":"csp_XBiubiu","searchable":1,"quickSearch":1,"filterable":0,"ext":"https://notabug.org/xx03253/xxu/raw/main/MaooXB2/达达龟.json"},
    {"key": "csp_剧白白","name": "🥈剧白白(XB)","type": 3,"api": "csp_XBiubiu","searchable": 1,"quickSearch": 1,"filterable": 0,"ext": "https://notabug.org/xx03253/xxu/raw/main/MaooXB2/剧白白-蓝光.json"},
    {"key":"csp_biubiu_789影视","name":"🥈789影视(XB)","type":3,"api":"csp_XBiubiu","searchable":1,"quickSearch":1,"filterable":0,"ext":"https://notabug.org/xx03253/xxu/raw/main/MaooXB2/789影视.json"},
    {"key":"csp_biubiu_voflix","name":"🥈voflix(XB)","type":3,"api":"csp_XBiubiu","searchable":1,"quickSearch":1,"filterable":0,"ext":"https://notabug.org/xx03253/xxu/raw/main/MaooXB2/voflix.json"},
    {"key":"csp_biubiu_yekong","name":"🥈夜空高清(XB)","type":3,"api":"csp_XBiubiu","searchable":1,"quickSearch":1,"filterable":0,"ext":"https://notabug.org/xx03253/xxu/raw/main/MaooXB2/yekong.json"},
    {"key":"csp_biubiu_牛马TV","name":"🥈牛马TV(可)","type":3,"api":"csp_XBiubiu","searchable":1,"quickSearch":1,"filterable":0,"ext":"https://notabug.org/xx03253/xxu/raw/main/MaooXB2/牛马TV.json"},
    {"key":"csp_biubiu_尘落影院","name":"🥈尘落影院(可)","type":3,"api":"csp_XBiubiu","searchable":1,"quickSearch":1,"filterable":0,"ext":"https://notabug.org/xx03253/xxu/raw/main/MaooXB2/尘落影院.json"},
    {"key":"csp_biubiu_city电影","name":"🥈city电影(可)","type":3,"api":"csp_XBiubiu","searchable":1,"quickSearch":1,"filterable":0,"ext":"https://notabug.org/xx03253/xxu/raw/main/MaooXB2/city电影.json"},
    {"key":"csp_biubiu_视中心影院","name":"🥈视中心影院(XB)","type":3,"api":"csp_XBiubiu","searchable":1,"quickSearch":1,"filterable":0,"ext":"https://notabug.org/xx03253/xxu/raw/main/MaooXB2/视中心影院.json"},
    {"key":"csp_biubiu_老电影","name":"🥈老电影(XB)","type":3,"api":"csp_XBiubiu","searchable":1,"quickSearch":1,"filterable":0,"ext":"https://notabug.org/xx03253/xxu/raw/main/MaooXB2/老电影.json"},
    {"key":"csp_biubiu_极品影视","name":"🥈极品影视(XB)","type":3,"api":"csp_XBiubiu","searchable":1,"quickSearch":1,"filterable":0,"ext":"https://notabug.org/xx03253/xxu/raw/main/MaooXB2/极品影视.json"},
    {"key":"csp_biubiu_Nike影视网","name":"🥈Nike影视网(XB)","type":3,"api":"csp_XBiubiu","searchable":1,"quickSearch":1,"filterable":0,"ext":"https://notabug.org/xx03253/xxu/raw/main/MaooXB2/Nike影视网.json"},
    {"key":"csp_biubiu_87影院","name":"🥈87影院(XB)","type":3,"api":"csp_XBiubiu","searchable":1,"quickSearch":1,"filterable":0,"ext":"https://notabug.org/xx03253/xxu/raw/main/MaooXB2/87影院.json"},
    {"key":"csp_biubiu_蓝光影院","name":"🥈蓝光影院(XB)","type":3,"api":"csp_XBiubiu","searchable":1,"quickSearch":1,"filterable":0,"ext":"https://notabug.org/xx03253/xxu/raw/main/MaooXB2/蓝光影院.json"},
    {"key":"csp_biubiu_口袋影院","name":"🥈口袋影院(XB)","type":3,"api":"csp_XBiubiu","searchable":1,"quickSearch":1,"filterable":0,"ext":"https://notabug.org/xx03253/xxu/raw/main/MaooXB2/口袋影院.json"},
    {"key":"csp_biubiu_北川影视","name":"🥈北川影视(XB)","type":3,"api":"csp_XBiubiu","searchable":1,"quickSearch":1,"filterable":0,"ext":"https://notabug.org/xx03253/xxu/raw/main/MaooXB2/北川影视.json"},
    {"key":"csp_biubiu_六度TV","name":"🥈六度TV(XB)","type":3,"api":"csp_XBiubiu","searchable":1,"quickSearch":1,"filterable":0,"ext":"https://notabug.org/xx03253/xxu/raw/main/MaooXB2/六度TV.json"},
    {"key":"csp_biubiu_完美看看","name":"🥈完美看看(XB)","type":3,"api":"csp_XBiubiu","searchable":1,"quickSearch":1,"filterable":0,"ext":"https://notabug.org/xx03253/xxu/raw/main/MaooXB2/完美看看影视.json"},
    {"key":"csp_biubiu_人人影视","name":"🥈人人影视(XB)","type":3,"api":"csp_XBiubiu","searchable":1,"quickSearch":1,"filterable":0,"ext":"https://notabug.org/xx03253/xxu/raw/main/MaooXB2/人人影视.json"},
    {"key":"csp_biubiu_VIP1280","name":"🥈VIP1280(XB)","type":3,"api":"csp_XBiubiu","searchable":1,"quickSearch":1,"filterable":0,"ext":"https://notabug.org/xx03253/xxu/raw/main/MaooXB2/VIP1280.json"},
    {"key":"csp_biubiu_手机看剧","name":"🥈手机看剧(XB)","type":3,"api":"csp_XBiubiu","searchable":1,"quickSearch":1,"filterable":0,"ext":"https://notabug.org/xx03253/xxu/raw/main/MaooXB2/手机看剧.json"},
    {"key":"csp_biubiu_星空影视","name":"🥈星空影视(XB)","type":3,"api":"csp_XBiubiu","searchable":1,"quickSearch":1,"filterable":0,"ext":"https://notabug.org/xx03253/xxu/raw/main/MaooXB2/星空影视.json"},
    {"key":"csp_biubiu_豆角网","name":"🥈豆角网(XB)","type":3,"api":"csp_XBiubiu","searchable":1,"quickSearch":1,"filterable":0,"ext":"https://notabug.org/xx03253/xxu/raw/main/MaooXB2/豆角网.json"},


## XB系列
    {"key":"csp_biubiu_影视之光","name":"🥈影视之光(XB)","type":3,"api":"csp_XBiubiu","searchable":1,"quickSearch":1,"filterable":0,"ext":"https://notabug.org/xx03253/xxu/raw/main/MaooXB2/影视之光.json"},
    {"key":"csp_biubiu_神马影院","name":"🥈神马影院(XB)","type":3,"api":"csp_XBiubiu","searchable":1,"quickSearch":1,"filterable":0,"ext":"https://notabug.org/xx03253/xxu/raw/main/MaooXB2/神马影院.json"},
    {"key":"csp_biubiu_23影院","name":"🥈23影院(XB)","type":3,"api":"csp_XBiubiu","searchable":1,"quickSearch":1,"filterable":0,"ext":"https://notabug.org/xx03253/xxu/raw/main/MaooXB2/23影院.json"},
    {"key": "csp_骚火电影","name": "🥈骚火电影(XB)","type": 3,"api": "csp_XBiubiu","searchable": 1,"quickSearch": 1,"filterable": 0,"ext": "https://notabug.org/xx03253/xxu/raw/main/MaooXB2/骚火电影.json"},
    {"key":"csp_biubiu_乐猪影视","name":"🥈乐猪影视(XB)","type":3,"api":"csp_XBiubiu","searchable":1,"quickSearch":1,"filterable":0,"ext":"https://notabug.org/xx03253/xxu/raw/main/MaooXB2/乐猪影视.json"},
    {"key":"csp_biubiu_chok8电影","name":"🥈chok8电影(XB)","type":3,"api":"csp_XBiubiu","searchable":1,"quickSearch":1,"filterable":0,"ext":"https://notabug.org/xx03253/xxu/raw/main/MaooXB2/chok8电影.json"},
    {"key":"csp_biubiu_九州影视","name":"🥈九州影视(XB)","type":3,"api":"csp_XBiubiu","searchable":1,"quickSearch":1,"filterable":0,"ext":"https://notabug.org/xx03253/xxu/raw/main/MaooXB2/九州影视.json"},
    {"key":"csp_biubiu_火火影视","name":"🥈火火影视(XB)","type":3,"api":"csp_XBiubiu","searchable":1,"quickSearch":1,"filterable":0,"ext":"https://notabug.org/xx03253/xxu/raw/main/MaooXB2/火火影视.json"},
    {"key":"csp_biubiu_天空资源","name":"🥈天空资源(XB)","type":3,"api":"csp_XBiubiu","searchable":1,"quickSearch":1,"filterable":0,"ext":"https://notabug.org/xx03253/xxu/raw/main/MaooXB2/天空资源.json"},
    {"key":"csp_biubiu_1080Kkk","name":"🥈1080Kkk(XB)","type":3,"api":"csp_XBiubiu","searchable":1,"quickSearch":1,"filterable":0,"ext":"https://notabug.org/xx03253/xxu/raw/main/MaooXB2/1080Kkk.json"},
    {"key":"csp_biubiu_飘花播播","name":"🥈飘花播播(XB)","type":3,"api":"csp_XBiubiu","searchable":1,"quickSearch":1,"filterable":0,"ext":"https://notabug.org/xx03253/xxu/raw/main/MaooXB2/飘花播播.json"},
    
  



## XPath系列
    {"key":"csp_xpath_tgys","name":"🥈特狗影视(XPF)","type":3,"api":"csp_XPathMacFilter","searchable":1,"quickSearch":1,"filterable":1,"ext":"https://notabug.org/xx03253/xxu/raw/main/MaooXP/tgys.json"},
    {"key":"csp_xpath_jpys","name":"🥈极品影视(XPF)","type":3,"api":"csp_XPathMacFilter","searchable":1,"quickSearch":1,"filterable":1,"ext":"https://notabug.org/xx03253/xxu/raw/main/MaooXP/jpys.json"},
    {"key":"csp_xpath_6d","name":"🥈六度TV(XPF)","type":3,"api":"csp_XPathFilter","searchable":1,"quickSearch":1,"filterable":1,"ext":"https://notabug.org/xx03253/xxu/raw/main/MaooXP/6d.json"},
    {"key":"csp_xpath_bdcl","name":"🥈哔滴磁力(XPF)","type":3,"api":"csp_XPath","searchable":1,"quickSearch":1,"filterable":1,"ext":"https://notabug.org/xx03253/xxu/raw/main/MaooXP/bidid.json"},
    {"key":"csp_xpath_jbb","name":"🥈剧白白(XPF)","type":3,"api":"csp_XPathMacFilter","searchable":1,"quickSearch":1,"filterable":1,"ext":"https://notabug.org/xx03253/xxu/raw/main/MaooXP/jubaibai.json"},
    {"key":"csp_xpath_meiju56","name":"🥈美剧网(XPF)","type":3,"api":"csp_XPathFilter","searchable":1,"quickSearch":1,"filterable":1,"ext":"https://notabug.org/xx03253/xxu/raw/main/MaooXP/meiju562.json"},
    {"key":"csp_xpath_Gimy","name":"🥈GIMY影视(XPF)","type":3,"api":"csp_XPathMacFilter","searchable":0,"quickSearch":0,"filterable":1,"ext":"https://notabug.org/xx03253/xxu/raw/main/MaooXP/Gimy.json"},
    {"key":"csp_xpath_Gimy2","name":"🥈GimyTV(XPF)","type":3,"api":"csp_XPathMacFilter","searchable":0,"quickSearch":0,"filterable":1,"ext":"https://notabug.org/xx03253/xxu/raw/main/MaooXP/Gimy2.json"},
    {"key":"csp_xpath_naifeiorg","name":"🥈奈飞中文(XPF)","type":3,"api":"csp_XPathMacFilter","searchable":1,"quickSearch":1,"filterable":1,"ext":"https://notabug.org/xx03253/xxu/raw/main/MaooXP/naifeiorg.json"},
    {"key":"csp_xpath_dandanzan10","name":"🥈蛋蛋赞(电影)(XPF)","type":3,"api":"csp_XPathFilter","searchable":0,"quickSearch":0,"filterable":1,"ext":"https://notabug.org/xx03253/xxu/raw/main/MaooXP/dandanzan10.json"},
    {"key":"csp_xpath_lanmei","name":"🥈蓝莓影视(XPF)","type":3,"api":"csp_XPathMacFilter","searchable":1,"quickSearch":1,"filterable":1,"ext":"https://notabug.org/xx03253/xxu/raw/main/MaooXP/lanmei.json"},
    {"key":"csp_xpath_meiju562","name":"🥈美剧56(XPF)","type":3,"api":"csp_XPathMacFilter","searchable":1,"quickSearch":1,"filterable":1,"ext":"https://notabug.org/xx03253/xxu/raw/main/MaooXP/meiju562.json"},

    {"key": "csp_xpath_网络搜集库88","name": "⚽️球迷专场一","type": 3,"api": "csp_XPath","searchable": 1,"quickSearch": 0,"filterable": 1,"ext": "https://notabug.org/xx03253/xxu/raw/main/MaooXP/88kanqiu.json"}, 
    {"key": "csp_xpath_网络搜集库qiumi","name": "⚽️球迷专场二","type": 3,"api": "csp_XPathFilter","searchable": 1,"quickSearch": 0,"filterable": 1,"ext": "https://notabug.org/xx03253/xxu/raw/main/MaooXP/qiumi.json"},

    {"key": "csp_QQ","name": "🐧腾讯（官）","type": 3,"api": "csp_QQ","searchable": 1,"quickSearch": 1,"filterable": 1},
    {"key": "csp_MGTV","name": "🍹芒果（官）","type": 3,"api": "csp_MGTV","searchable": 1,"quickSearch": 1,"filterable": 1},
    {"key": "csp_IQIYI","name": "🌈爱奇艺（官）","type": 3,"api": "csp_IQIYI","searchable": 1,"quickSearch": 1,"filterable": 1},
    {"key": "youku","name": "👑优酷（官）","type": 0,"api": "https://www.zycaiji.net:7788/api.php/provide/vod/from/youku/at/xml/","searchable": 0,"quickSearch": 0,"filterable": 0,
      "categories": [
        "综艺",
        "动漫",
        "动作片",
        "喜剧片",
        "爱情片",
        "科幻片",
        "恐怖片",
        "剧情片",
        "战争片",
        "国产剧",
        "港台剧",
        "日韩剧",
        "欧美剧",
        "惊悚片",
        "犯罪片",
        "冒险片",
        "悬疑片",
        "动画片",
        "武侠片",
        "奇幻片",
        "少儿",
        "其他片"
      ]},
    {"key": "PpTV","name": "📺PPTV（官）","type": 0,"api": "https://www.zycaiji.net:7788/api.php/provide/vod/from/pptv/at/xml/","searchable": 0,"quickSearch": 0,"filterable": 0,
      "categories": [
        "综艺",
        "动漫",
        "动作片",
        "喜剧片",
        "爱情片",
        "科幻片",
        "恐怖片",
        "剧情片",
        "战争片",
        "国产剧",
        "港台剧",
        "日韩剧",
        "欧美剧",
        "惊悚片",
        "犯罪片",
        "冒险片",
        "悬疑片",
        "动画片",
        "武侠片",
        "少儿",
        "其他片"
      ]},
    {"key": "souhu","name": "🐠搜狐（官）","type": 0,"api": "https://www.bajiezy.xyz/api.php/provide/vod/from/sohu/at/xml/","searchable": 0,"quickSearch": 0,"filterable": 0,
      "categories": [
        "综艺",
        "动漫",
        "动作片",
        "喜剧片",
        "爱情片",
        "科幻片",
        "恐怖片",
        "剧情片",
        "战争片",
        "国产剧",
        "港台剧",
        "日韩剧",
        "欧美剧",
        "惊悚片",
        "犯罪片",
        "悬疑片",
        "动画片",
        "武侠片",
        "奇幻片",
        "少儿",
        "其他片"
      ]},



##  萝卜/白菜/木白/绿豆
    {"key":"csp_appysv2_影库","name":"影库(萝卜)","type":3,"api":"csp_AppYsV2","searchable":1,"quickSearch":1,"filterable":1,"ext":"https://yingkudy.com/lvdou_api.php/v1.vod"},
    {"key":"csp_appysv2_醉璃笙TV","name":"醉璃笙TV(神马)","type":3,"api":"csp_AppYsV2","searchable":1,"quickSearch":1,"filterable":1,"ext":"http://web.xhdj.vip/api.php/iptv/vod/"},
    {"key":"csp_appysv2_柚子TV","name":"柚子TV(神马)","type":3,"api":"csp_AppYsV2","searchable":1,"quickSearch":1,"filterable":1,"ext":"http://tvht.lanrentk.cc/api.php/iptv/vod/"},



##  切片资源
    {"key":"多多资源","name":"多多资源(切)","type":1,"api":"https://www.ddzyz1.com/api.php/provide/vod","searchable":1,"quickSearch":1},
    {"key":"新浪资源","name":"新浪资源(切)","type":1,"api":"http://api.xinlangapi.com/xinlangapi.php/provide/vod/","searchable":1,"quickSearch":1},
    {"key":"金鹰资源","name":"金鹰资源(切)","type":1,"api":"http://jinyingzy.com/provide/vod","searchable":1,"quickSearch":1},
    {"key":"冠军资源","name":"冠军资源(切)","type":1,"api":"https://www.cmpzy.com/api.php/provide/vod/","searchable":1,"quickSearch":1},    
    {"key":"FOX资源","name":"FOX资源(切)","type":1,"api":"https://api.foxzyapi.com/api.php/provide/vod/","searchable":1,"quickSearch":1},
    {"key":"量子资源","name":"量子资源(切)","type":1,"api":"http://cj.lziapi.com/api.php/provide/vod/","searchable":1,"quickSearch":1},
    {"key":"卧龙资源","name":"卧龙资源(切)","type":1,"api":"https://collect.wolongzyw.com/api.php/provide/vod/","searchable":1,"quickSearch":1},
    {"key":"樱花资源","name":"樱花资源(切)","type":1,"api":"https://m3u8.apiyhzy.com/api.php/provide/vod/","searchable":1,"quickSearch":1},
    {"key":"易看资源","name":"易看资源(切)","type":1,"api":"https://api.yikanapi.com/api.php/provide/vod/","searchable":1,"quickSearch":1},
    {"key":"快播资源","name":"快播资源(切)","type":1,"api":"http://www.kuaibozy.com/api.php/provide/vod/","searchable":1,"quickSearch":1},
    {"key":"U酷资源","name":"U酷资源(优)","type":1,"api":"https://api.ukuapi.com/api.php/provide/vod","searchable":1,"quickSearch":1},

    #三方聚合

    {"key":"影图","name":"影图(聚)","type":1,"api":"https://cj.vodimg.top/api.php/provide/vod/","searchable":1,"quickSearch":1},
    {"key":"盘看看","name":"盘看看(聚)","type":1,"api":"http://tvcaiji.pankk.cn/api.php/provide/vod/","searchable":1,"quickSearch":1},

   {"key":"1","name":"🔞🈲未成年人禁止访问，请止步！！","type":0,"api":""},
   {"key":"ASMR","name":"🈲ASMR(优)","type":1,"api":"http://www.asmr19.in/api.php/provide/vod/","searchable":1,"quickSearch":1},
   {"key":"csp_biubiu_GAOAA","name":"*🔞GAOAA(XB)","type":3,"api":"csp_XBiubiu","searchable":1,"quickSearch":1,"filterable":1,"ext":"https://hk.kstore.space/download/2698/MeowXB/GAOAA.json"},
   {"key":"csp_biubiu_四虎影院","name":"*🔞四虎影院(XB)","type":3,"api":"csp_XBiubiu","searchable":1,"quickSearch":1,"filterable":1,"ext":"https://gitea.com/yy5202/BiuBiuTV/raw/branch/main/%2A%E5%9B%9B%E8%99%8E%E5%BD%B1%E9%99%A2.json"},

 
    {"key":"csp_biubiu_8个8","name":"*🔞8个8 (XB)","type":3,"api":"csp_XBiubiu","searchable":1,"quickSearch":1,"filterable":1,"ext":"https://CN.kstore.space/download/2698/XB/%E5%85%AB%E4%B8%AA%E5%85%AB.json"},
 //{"key":"csp_biubiu_18AV","name":"*🔞18AV(XB)","type":3,"api":"csp_XBiubiu","searchable":1,"quickSearch":1,"filterable":1,"ext":"https://CN.kstore.space/download/2698/XB/18mm.json"},	
    {"key":"csp_biubiu_床吧","name":"*🔞床吧(XB)","type":3,"api":"csp_XBiubiu","searchable":1,"quickSearch":1,"filterable":1,"ext":"https://CN.kstore.space/download/2698/XB/_%E5%BA%8A%E5%90%A7.json"},
 //{"key":"csp_biubiu_爱爱影视","name":"*🔞爱爱影视(XB)","type":3,"api":"csp_XBiubiu","searchable":1,"quickSearch":1,"filterable":1,"ext":"https://CN.kstore.space/download/2698/XB/_%E7%88%B1%E7%88%B1%E5%BD%B1%E8%A7%86.json"},	
    {"key":"csp_biubiu_爱看","name":"*🔞爱看(XB)","type":3,"api":"csp_XBiubiu","searchable":1,"quickSearch":1,"filterable":1,"ext":"https://CN.kstore.space/download/2698/XB/_%E7%88%B1%E7%9C%8B%E5%BD%B1%E9%99%A2.json"},
    {"key":"csp_biubiu_黄仓库","name":"*🔞黄仓库(XB)","type":3,"api":"csp_XBiubiu","searchable":1,"quickSearch":1,"filterable":1,"ext":"https://gitea.com/100/00700/raw/branch/main/XBiubiu/%E9%BB%84%E9%A2%9C%E4%BB%93%E5%BA%93.json"},

	
  {"key":"91麻豆","name":"🔞91麻豆","type":1,"api":"https://91md.me/api.php/provide/vod/","playUrl":"","searchable":1,"quickSearch":1},
  {"key":"🔞丝袜资源(官采)","name":"🔞丝袜资源","type":1,"api":"https://siwazyw.cc/api.php/provide/vod/","searchable":1,"quickSearch":1,"filterable":0},
  {"key":"🔞麻豆视频(官采)","name":"🔞麻豆视频","type":1,"api":"https://madouse.la/api.php/provide/vod/","searchable":1,"quickSearch":1,"filterable":0},
  {"key":"🔞91麻豆(官采)","name":"🔞91麻豆","type":1,"api":"https://91md.me/api.php/provide/vod/","searchable":1,"quickSearch":1,"filterable":0},
  {"key":"🔞523 资源(官采)","name":"🔞523 资源","type":1,"api":"https://caiji.523zyw.com/inc/apijson_vod.php","searchable":1,"quickSearch":1,"filterable":0},
  {"key":"🔞芒果资源(官采)","name":"🔞芒果资源","type":1,"api":"https://mgzyz1.com/api.php/provide/vod/","searchable":1,"quickSearch":1,"filterable":0},
  {"key":"共青春(官采)","name":"🔞共青春","type":1,"api":"https://gqcyy.com/api.php/provide/vod/" ,"playUrl":"parse:parwix1","searchable":1,"quickSearch":1},
  {"key":"酷豆2","name":"🔞酷豆2","type":1,"api":"https://api.kdapi.info/api.php/provide/vod/","playUrl":"","searchable":1,"quickSearch":1},
  {"key":"*酷豆资源","name":"*🔞酷豆资源","type":1,"api":"https://kudouzy.com/api.php/provide/vod/","searchable":0,"quickSearch":0},
  {"key":"*酷伦理","name":"*🔞酷伦理","type":1,"api":"https://api.kudian70.com/api.php/provide/vod/","searchable":0,"quickSearch":0},
  {"key":"CK资源","name":"🔞CK资源","type":1,"api":"http://www.feifei67.com/api.php/provide/vod/","playUrl":"","searchable":1,"quickSearch":1},
  {"key":"佳丽资源","name":"🔞佳丽资源","type":1,"api":"http://www.jializyzapi.com/api.php/provide/vod/","playUrl":"","searchable":1,"quickSearch":1},
  {"key":"香蕉资源(佳丽)","name":"🔞香蕉资源(佳丽)","type":1,"api":"https://xjzyapi.com/api.php/provide/vod/","playUrl":"","searchable":1,"quickSearch":1}
],

"parses":[
{"name":"解析聚合","type":3,"url":"Demo"},
{"name":"Json并发","type":2,"url":"Parallel"},
{"name":"Json轮询","type":2,"url":"Sequence"},


{"name":"恩哥", "type":1,"url":"http://newjiexi.gotka.top/keyu3.php?url=","ext":{"flag":[ "qq","腾讯","qiyi","爱奇艺","奇艺","youku","优酷","mgtv","芒果","letv","乐视","pptv","PPTV","sohu","bilibili","哔哩哔哩","哔哩"],"header":{"User-Agent":"okhttp/4.1.0"}}},
{"name":"GGTV快速","type":1,"url":"https://play.fuqizhishi.com/maotv/API.php?appkey=xiongdimenbieguaiwodingbuzhulegailekey07201538&url="},
{"name":"m3u8tv高清","type":0,"url":"https://jx.m3u8.tv/jiexi/?url="},
{"name":"parwix稳定","type":0,"url":"https://jx.bozrc.com:4433/player/?url="},
{"name":"GGTV快速2","type":1,"url":"https://play.fuqizhishi.com/maotv/API.php?appkey=xiongdimenbieguaiwodingbuzhulegailekey07201538&url=","ext":{"flag":["qq","qiyi","mgtv","youku","letv","sohu","xigua","1905"],"header":{"User-Agent":"Dart/2.14 (dart:io)"}}},
{"name":"Pro","type":1,"url":"http://api.vip123kan.vip/?url=","ext":{"flag":["youku","优酷","mgtv","芒果","qq","腾讯","qiyi","爱奇艺","qq","奇艺"]}},
{"name":"线路m9","type":1,"url":"https://api.m3u8.tv:5678/home/api?type=ys&uid=1931000&key=gktuvyzABEORSYZ135&url="},
{"name":"web1","type":0,"url":"https://www.nxflv.com/?url=","ext":{"flag":["youku","优酷","mgtv","芒果","qq","腾讯","qiyi","爱奇艺","qq","奇艺","sohu","letv"]}},
{"name":"parwix1","type":0,"url":"https://jx.parwix.com:4433/player/?url=","ext":{"flag":["qq","腾讯","qiyi","爱奇艺","奇艺","youku","优酷","mgtv","芒果","letv","乐视","pptv","PPTV","sohu","bilibili","哔哩哔哩","哔哩"]}},
{"name":"测试接口","type":1,"url":"https://apijs.sigu.vip/?url="},
{"name": "fuqi","type": 1,"url": "https://play.fuqizhishi.com/gang0818/API.php?appkey=QQ172598364&url="}, 
{"name":"fuqi","type":1,"url":"https://play.fuqizhishi.com/ganggang/API.php?appkey=QQ172598364&url="},
{"name":"293","type":1,"url":"http://47.98.234.2:7768/api.php?url=","ext":{"flag":["qq","qiyi","mgtv","youku","letv","sohu","xigua","1905"],"header":{"User-Agent":"Dart/2.14(dart:io)"}}},
{"name":"yjhan","type":1,"url":"http://cl.yjhan.com:8090/home/api?type=ys&uid=821518&key=aghlmnyBFIJMPRX489&url="},
{"name":"ld","type":1,"url":"https://api.ldjx.cc/wp-api/getvodurl.php?token=1001&vid=","ext":{"flag":["leduo"]}},
{"name":"jisu","type":1,"url":"https://jisu.rongxingvr.top/api/?key=rCMmoKD0H0ShJ00u2f&url=","ext":{"flag":["qq","qiyi","youku","pptv","le","sohu","bilibili","xigua","1905"]}},
{"name":"接口1","type":1,"url":"https://danmu.nxflv.com/?uid=11117471&key=bemnuvzEFGKNST4578&url="},
{"name":"接口2","type":1,"url":"https://json.freejx.in/?url="},
{"name":"接口3","type":0,"url":"https://ys.lbbb.cc/?url="},
{"name":"接口4","type":1,"url":"https://cache.json.icu/home/api?type=ys&uid=7423299&key=finqsvwxACIMSTUWX1&url="}, 	
{"name":"管理员文忠专用","type":1,"url":"http://211.99.99.236:4567/jhjson/ceshi.php?url="},
{"name":"接口6","type":0,"url":"https://cache.json.icu/home/api?type=ys&uid=7696506&key=ahinqxyzAIJLSTVZ45&url=
"},
{"name":"13","type": 0,"url": "http://150.230.216.174/tvjx.php?url="},
{"name":"线路14","type":1,"url":"http://json.youguo520.top/fufeng/?url=","ext":{"header":{"User-Agent":"Dart/2.14 (dart:io)"}}}],
"flags": ["youku","qq","iqiyi","qiyi","letv","sohu","tudou","pptv","mgtv","wasu","bilibili","duoduozy","renrenmi"],
  "ijk":[
    {"group":"软解码","options":[
      {"category":4,"name":"opensles","value":"0"},
      {"category":4,"name":"overlay-format","value":"842225234"},
      {"category":4,"name":"framedrop","value":"1"},
      {"category":4,"name":"soundtouch","value":"1"},
      {"category":4,"name":"start-on-prepared","value":"1"},
      {"category":1,"name":"http-detect-range-support","value":"0"},
      {"category":1,"name":"fflags","value":"fastseek"},
      {"category":2,"name":"skip_loop_filter","value":"48"},
      {"category":4,"name":"reconnect","value":"1"},
      {"category":4,"name":"enable-accurate-seek","value":"0"},
      {"category":4,"name":"mediacodec","value":"0"},
      {"category":4,"name":"mediacodec-auto-rotate","value":"0"},
      {"category":4,"name":"mediacodec-handle-resolution-change","value":"0"},
      {"category":4,"name":"mediacodec-hevc","value":"0"},
      {"category":1,"name":"dns_cache_timeout","value":"600000000"}
    ]},
    {"group":"硬解码","options":[
      {"category":4,"name":"opensles","value":"0"},
      {"category":4,"name":"overlay-format","value":"842225234"},
      {"category":4,"name":"framedrop","value":"1"},
      {"category":4,"name":"soundtouch","value":"1"},
      {"category":4,"name":"start-on-prepared","value":"1"},
      {"category":1,"name":"http-detect-range-support","value":"0"},
      {"category":1,"name":"fflags","value":"fastseek"},
      {"category":2,"name":"skip_loop_filter","value":"48"},
      {"category":4,"name":"reconnect","value":"1"},
      {"category":4,"name":"enable-accurate-seek","value":"0"},
      {"category":4,"name":"mediacodec","value":"1"},
      {"category":4,"name":"mediacodec-auto-rotate","value":"1"},
      {"category":4,"name":"mediacodec-handle-resolution-change","value":"1"},
      {"category":4,"name":"mediacodec-hevc","value":"1"},
      {"category":1,"name":"dns_cache_timeout","value":"600000000"}
    ]}
  ],
  "ads":["mimg.0c1q0l.cn","www.googletagmanager.com","www.google-analytics.com","mc.usihnbcq.cn","mg.g1mm3d.cn","mscs.svaeuzh.cn","cnzz.hhttm.top","tp.vinuxhome.com","cnzz.mmstat.com","www.baihuillq.com","s23.cnzz.com","z3.cnzz.com","c.cnzz.com","stj.v1vo.top","z12.cnzz.com","img.mosflower.cn","tips.gamevvip.com","ehwe.yhdtns.com","xdn.cqqc3.com","www.jixunkyy.cn","sp.chemacid.cn","hm.baidu.com","s9.cnzz.com","z6.cnzz.com","um.cavuc.com","mav.mavuz.com","wofwk.aoidf3.com","z5.cnzz.com","xc.hubeijieshikj.cn","tj.tianwenhu.com","xg.gars57.cn","k.jinxiuzhilv.com","cdn.bootcss.com","ppl.xunzhuo123.com","xomk.jiangjunmh.top","img.xunzhuo123.com","z1.cnzz.com","s13.cnzz.com","xg.huataisangao.cn","z7.cnzz.com","xg.huataisangao.cn","z2.cnzz.com","s96.cnzz.com","q11.cnzz.com","thy.dacedsfa.cn","xg.whsbpw.cn","s19.cnzz.com","z8.cnzz.com","s4.cnzz.com","f5w.as12df.top","ae01.alicdn.com","www.92424.cn","k.wudejia.com","vivovip.mmszxc.top","qiu.xixiqiu.com","cdnjs.hnfenxun.com","cms.qdwght.com"]
}